{"installed":{
    "client_id":"879676212629-qeg9c5vtupvh85p7d44ih176utej7l3e.apps.googleusercontent.com",
    "project_id":"quickstart-1556833393930",
    "auth_uri":"https://accounts.google.com/o/oauth2/auth",
    "token_uri":"https://oauth2.googleapis.com/token",
    "auth_provider_x509_cert_url":"https://www.googleapis.com/oauth2/v1/certs",
    "client_secret":"lseOUPdt1898XTyLLIm28yr4",
    "redirect_uris":["urn:ietf:wg:oauth:2.0:oob",
        "http://localhost"]}}

